module ci-sample

go 1.15

require (
	github.com/labstack/echo v3.3.10+incompatible
	github.com/labstack/gommon v0.3.0 // indirect
	github.com/stretchr/testify v1.7.0
	golang.org/x/crypto v0.0.0-20210421170649-83a5a9bb288b // indirect
)
